{
    "name" : "Bowling",
    "scene_path" : "res://plugins/minigames/bowling/minigame.tscn",
    "image_path" : "res://plugins/minigames/bowling/screenshot.png",
    "type" : ["1v3"],
    
    "description" : {
	"en" : "The solo player tries to knock all other players off their platform.\nIf he succeeds, he wins. If the time runs out, the group wins."
    },
    
    "used_controls" : {
	"up" : {
	    "en" : "Move up"
	},
	"left" : {
	    "en" : "Move left"
	},
	"down" : {
	    "en" : "Move down"
	},
	"right" : {
	    "en" : "Move right"
	},
	"action1" : {
	    "en" : "Jump"
	},
	"action2" : {
	    "en" : "Throw ball - Only solo player"
	}
    }
}
